<?xml version="1.0" encoding="UTF-8" standalone="no"?>
<svg
   xmlns:dc="http://purl.org/dc/elements/1.1/"
   xmlns:cc="http://creativecommons.org/ns#"
   xmlns:rdf="http://www.w3.org/1999/02/22-rdf-syntax-ns#"
   xmlns:svg="http://www.w3.org/2000/svg"
   xmlns="http://www.w3.org/2000/svg"
   xmlns:xlink="http://www.w3.org/1999/xlink"
   xmlns:sodipodi="http://sodipodi.sourceforge.net/DTD/sodipodi-0.dtd"
   xmlns:inkscape="http://www.inkscape.org/namespaces/inkscape"
   width="300"
   height="144"
   id="svg3356"
   viewBox="0 0 300 144"
   sodipodi:version="0.32"
   inkscape:version="1.0beta1 (a4ee55bc41, 2019-11-15)"
   sodipodi:docname="tips-f02.svg"
   version="1.1">
  <defs
     id="defs3" />
  <sodipodi:namedview
     inkscape:window-maximized="0"
     inkscape:window-y="27"
     inkscape:window-x="54"
     inkscape:window-height="1053"
     inkscape:window-width="1866"
     inkscape:guide-bbox="true"
     showguides="true"
     units="px"
     showgrid="false"
     inkscape:document-rotation="0"
     inkscape:current-layer="layer1"
     inkscape:document-units="px"
     inkscape:cy="72"
     inkscape:cx="160"
     inkscape:zoom="1.4"
     inkscape:pageshadow="2"
     inkscape:pageopacity="0.0"
     borderopacity="1.0"
     bordercolor="#666666"
     pagecolor="#ffffff"
     id="base"
     inkscape:lockguides="true" />
  <metadata
     id="metadata4">
    <rdf:RDF>
      <cc:Work
         rdf:about="">
        <dc:format>image/svg+xml</dc:format>
        <dc:type
           rdf:resource="http://purl.org/dc/dcmitype/StillImage" />
        <dc:title />
      </cc:Work>
    </rdf:RDF>
  </metadata>
  <g
     inkscape:label="Layer 1"
     inkscape:groupmode="layer"
     id="layer1">
    <path
       inkscape:tile-cy="543.50000"
       inkscape:tile-cx="164.00000"
       inkscape:tile-h="0.30000001"
       inkscape:tile-w="143.30000"
       id="path92"
       d="m 78.5,71.65 h 143"
       style="color:#000000;display:inline;overflow:visible;visibility:visible;fill:none;fill-opacity:0.75;fill-rule:evenodd;stroke:#000000;stroke-width:0.3;stroke-linecap:butt;stroke-linejoin:miter;stroke-miterlimit:4;stroke-dashoffset:0;stroke-opacity:1;marker:none;marker-start:none;marker-mid:none;marker-end:none"
       inkscape:connector-curvature="0" />
    <use
       height="2150.5"
       width="320"
       id="use1473"
       transform="rotate(1.5000006,150.00689,71.647604)"
       xlink:href="#path92"
       inkscape:tiled-clone-of="#path92"
       y="0"
       x="0" />
    <use
       height="2150.5"
       width="320"
       id="use1474"
       transform="rotate(2.9999988,149.99521,71.651626)"
       xlink:href="#path92"
       inkscape:tiled-clone-of="#path92"
       y="0"
       x="0" />
    <use
       height="2150.5"
       width="320"
       id="use1475"
       transform="rotate(4.5000017,150.00222,71.64932)"
       xlink:href="#path92"
       inkscape:tiled-clone-of="#path92"
       y="0"
       x="0" />
    <use
       height="2150.5"
       width="320"
       id="use1476"
       transform="rotate(5.999973,150.00029,71.652542)"
       xlink:href="#path92"
       inkscape:tiled-clone-of="#path92"
       y="0"
       x="0" />
    <use
       height="2150.5"
       width="320"
       id="use1477"
       transform="rotate(7.499988,149.99977,71.651031)"
       xlink:href="#path92"
       inkscape:tiled-clone-of="#path92"
       y="0"
       x="0" />
    <use
       height="2150.5"
       width="320"
       id="use1478"
       transform="rotate(8.9999767,150.00186,71.651747)"
       xlink:href="#path92"
       inkscape:tiled-clone-of="#path92"
       y="0"
       x="0" />
    <use
       height="2150.5"
       width="320"
       id="use1479"
       transform="rotate(10.500026,149.99912,71.647837)"
       xlink:href="#path92"
       inkscape:tiled-clone-of="#path92"
       y="0"
       x="0" />
    <use
       height="2150.5"
       width="320"
       id="use1480"
       transform="rotate(17.999992,149.99914,71.650104)"
       xlink:href="#path92"
       inkscape:tiled-clone-of="#path92"
       y="0"
       x="0" />
    <use
       height="2150.5"
       width="320"
       id="use1481"
       transform="rotate(19.500017,150.00056,71.649012)"
       xlink:href="#path92"
       inkscape:tiled-clone-of="#path92"
       y="0"
       x="0" />
    <use
       height="2150.5"
       width="320"
       id="use1482"
       transform="rotate(21.000011,150.00054,71.649433)"
       xlink:href="#path92"
       inkscape:tiled-clone-of="#path92"
       y="0"
       x="0" />
    <use
       height="2150.5"
       width="320"
       id="use1483"
       transform="rotate(22.499967,149.99975,71.651181)"
       xlink:href="#path92"
       inkscape:tiled-clone-of="#path92"
       y="0"
       x="0" />
    <use
       height="2150.5"
       width="320"
       id="use1484"
       transform="rotate(24.000029,150.00026,71.648972)"
       xlink:href="#path92"
       inkscape:tiled-clone-of="#path92"
       y="0"
       x="0" />
    <use
       height="2150.5"
       width="320"
       id="use1485"
       transform="rotate(25.500002,150.0004,71.650018)"
       xlink:href="#path92"
       inkscape:tiled-clone-of="#path92"
       y="0"
       x="0" />
    <use
       height="2150.5"
       width="320"
       id="use1486"
       transform="rotate(26.999962,149.99983,71.650887)"
       xlink:href="#path92"
       inkscape:tiled-clone-of="#path92"
       y="0"
       x="0" />
    <use
       height="2150.5"
       width="320"
       id="use1487"
       transform="rotate(28.500015,149.99997,71.649663)"
       xlink:href="#path92"
       inkscape:tiled-clone-of="#path92"
       y="0"
       x="0" />
    <use
       height="2150.5"
       width="320"
       id="use1488"
       transform="rotate(35.999988,150.00025,71.650501)"
       xlink:href="#path92"
       inkscape:tiled-clone-of="#path92"
       y="0"
       x="0" />
    <use
       height="2150.5"
       width="320"
       id="use1489"
       transform="matrix(0.793353,0.608761,-0.608761,0.793353,74.615002,-76.508106)"
       xlink:href="#path92"
       inkscape:tiled-clone-of="#path92"
       y="0"
       x="0" />
    <use
       height="2150.5"
       width="320"
       id="use1490"
       transform="rotate(38.999981,150.00013,71.650315)"
       xlink:href="#path92"
       inkscape:tiled-clone-of="#path92"
       y="0"
       x="0" />
    <use
       height="2150.5"
       width="320"
       id="use1491"
       transform="rotate(40.499997,149.99997,71.64988)"
       xlink:href="#path92"
       inkscape:tiled-clone-of="#path92"
       y="0"
       x="0" />
    <use
       height="2150.5"
       width="320"
       id="use1492"
       transform="rotate(42.00001,149.99974,71.649868)"
       xlink:href="#path92"
       inkscape:tiled-clone-of="#path92"
       y="0"
       x="0" />
    <use
       height="2150.5"
       width="320"
       id="use1493"
       transform="rotate(43.500032,150.00008,71.649563)"
       xlink:href="#path92"
       inkscape:tiled-clone-of="#path92"
       y="0"
       x="0" />
    <use
       height="2150.5"
       width="320"
       id="use1494"
       transform="rotate(45,149.99969,71.649836)"
       xlink:href="#path92"
       inkscape:tiled-clone-of="#path92"
       y="0"
       x="0" />
    <use
       height="2150.5"
       width="320"
       id="use1495"
       transform="rotate(46.499968,150.00003,71.6505)"
       xlink:href="#path92"
       inkscape:tiled-clone-of="#path92"
       y="0"
       x="0" />
    <use
       height="2150.5"
       width="320"
       id="use1496"
       transform="rotate(54.000012,149.99995,71.649866)"
       xlink:href="#path92"
       inkscape:tiled-clone-of="#path92"
       y="0"
       x="0" />
    <use
       height="2150.5"
       width="320"
       id="use1497"
       transform="rotate(55.500005,150.00001,71.649916)"
       xlink:href="#path92"
       inkscape:tiled-clone-of="#path92"
       y="0"
       x="0" />
    <use
       height="2150.5"
       width="320"
       id="use1498"
       transform="rotate(57.000015,149.9998,71.649916)"
       xlink:href="#path92"
       inkscape:tiled-clone-of="#path92"
       y="0"
       x="0" />
    <use
       height="2150.5"
       width="320"
       id="use1499"
       transform="rotate(58.499974,149.99991,71.650285)"
       xlink:href="#path92"
       inkscape:tiled-clone-of="#path92"
       y="0"
       x="0" />
    <use
       height="2150.5"
       width="320"
       id="use1500"
       transform="rotate(59.999988,150.00014,71.650044)"
       xlink:href="#path92"
       inkscape:tiled-clone-of="#path92"
       y="0"
       x="0" />
    <use
       height="2150.5"
       width="320"
       id="use1501"
       transform="rotate(61.499985,149.99992,71.650114)"
       xlink:href="#path92"
       inkscape:tiled-clone-of="#path92"
       y="0"
       x="0" />
    <use
       height="2150.5"
       width="320"
       id="use1502"
       transform="rotate(63.000038,149.99989,71.649515)"
       xlink:href="#path92"
       inkscape:tiled-clone-of="#path92"
       y="0"
       x="0" />
    <use
       height="2150.5"
       width="320"
       id="use1503"
       transform="rotate(64.499998,150.0002,71.65006)"
       xlink:href="#path92"
       inkscape:tiled-clone-of="#path92"
       y="0"
       x="0" />
    <use
       height="2150.5"
       width="320"
       id="use1504"
       transform="rotate(72.000008,149.99961,71.649774)"
       xlink:href="#path92"
       inkscape:tiled-clone-of="#path92"
       y="0"
       x="0" />
    <use
       height="2150.5"
       width="320"
       id="use1505"
       transform="rotate(73.500023,150.00013,71.649698)"
       xlink:href="#path92"
       inkscape:tiled-clone-of="#path92"
       y="0"
       x="0" />
    <use
       height="2150.5"
       width="320"
       id="use1506"
       transform="rotate(75.000005,149.99989,71.649917)"
       xlink:href="#path92"
       inkscape:tiled-clone-of="#path92"
       y="0"
       x="0" />
    <use
       height="2150.5"
       width="320"
       id="use1507"
       transform="rotate(76.500021,149.99999,71.649874)"
       xlink:href="#path92"
       inkscape:tiled-clone-of="#path92"
       y="0"
       x="0" />
    <use
       height="2150.5"
       width="320"
       id="use1508"
       transform="rotate(77.999987,149.99976,71.649913)"
       xlink:href="#path92"
       inkscape:tiled-clone-of="#path92"
       y="0"
       x="0" />
    <use
       height="2150.5"
       width="320"
       id="use1509"
       transform="rotate(79.499974,149.99972,71.650193)"
       xlink:href="#path92"
       inkscape:tiled-clone-of="#path92"
       y="0"
       x="0" />
    <use
       height="2150.5"
       width="320"
       id="use1510"
       transform="rotate(81.000023,150.0003,71.649794)"
       xlink:href="#path92"
       inkscape:tiled-clone-of="#path92"
       y="0"
       x="0" />
    <use
       height="2150.5"
       width="320"
       id="use1511"
       transform="rotate(82.500012,149.99986,71.650032)"
       xlink:href="#path92"
       inkscape:tiled-clone-of="#path92"
       y="0"
       x="0" />
    <use
       height="2150.5"
       width="320"
       id="use1512"
       transform="rotate(90,150,71.65)"
       xlink:href="#path92"
       inkscape:tiled-clone-of="#path92"
       y="0"
       x="0" />
    <use
       height="2150.5"
       width="320"
       id="use1513"
       transform="rotate(91.500001,150.00012,71.649976)"
       xlink:href="#path92"
       inkscape:tiled-clone-of="#path92"
       y="0"
       x="0" />
    <use
       height="2150.5"
       width="320"
       id="use1514"
       transform="rotate(92.999999,149.9999,71.649783)"
       xlink:href="#path92"
       inkscape:tiled-clone-of="#path92"
       y="0"
       x="0" />
    <use
       height="2150.5"
       width="320"
       id="use1515"
       transform="rotate(94.500002,150.00008,71.650002)"
       xlink:href="#path92"
       inkscape:tiled-clone-of="#path92"
       y="0"
       x="0" />
    <use
       height="2150.5"
       width="320"
       id="use1516"
       transform="rotate(95.999973,149.99996,71.650108)"
       xlink:href="#path92"
       inkscape:tiled-clone-of="#path92"
       y="0"
       x="0" />
    <use
       height="2150.5"
       width="320"
       id="use1517"
       transform="rotate(97.499988,150.00019,71.650112)"
       xlink:href="#path92"
       inkscape:tiled-clone-of="#path92"
       y="0"
       x="0" />
    <use
       height="2150.5"
       width="320"
       id="use1518"
       transform="rotate(98.999977,149.99994,71.650226)"
       xlink:href="#path92"
       inkscape:tiled-clone-of="#path92"
       y="0"
       x="0" />
    <use
       height="2150.5"
       width="320"
       id="use1519"
       transform="rotate(100.50003,150.00017,71.649793)"
       xlink:href="#path92"
       inkscape:tiled-clone-of="#path92"
       y="0"
       x="0" />
    <use
       height="2150.5"
       width="320"
       id="use1520"
       transform="rotate(107.99999,149.99981,71.649856)"
       xlink:href="#path92"
       inkscape:tiled-clone-of="#path92"
       y="0"
       x="0" />
    <use
       height="2150.5"
       width="320"
       id="use1521"
       transform="rotate(109.50002,150.00029,71.64998)"
       xlink:href="#path92"
       inkscape:tiled-clone-of="#path92"
       y="0"
       x="0" />
    <use
       height="2150.5"
       width="320"
       id="use1522"
       transform="rotate(111.00001,150.00016,71.649985)"
       xlink:href="#path92"
       inkscape:tiled-clone-of="#path92"
       y="0"
       x="0" />
    <use
       height="2150.5"
       width="320"
       id="use1523"
       transform="rotate(112.49997,149.99973,71.650132)"
       xlink:href="#path92"
       inkscape:tiled-clone-of="#path92"
       y="0"
       x="0" />
    <use
       height="2150.5"
       width="320"
       id="use1524"
       transform="rotate(114.00003,150.00036,71.649955)"
       xlink:href="#path92"
       inkscape:tiled-clone-of="#path92"
       y="0"
       x="0" />
    <use
       height="2150.5"
       width="320"
       id="use1525"
       transform="rotate(115.5,150.00024,71.650181)"
       xlink:href="#path92"
       inkscape:tiled-clone-of="#path92"
       y="0"
       x="0" />
    <use
       height="2150.5"
       width="320"
       id="use1526"
       transform="rotate(116.99996,149.99973,71.650097)"
       xlink:href="#path92"
       inkscape:tiled-clone-of="#path92"
       y="0"
       x="0" />
    <use
       height="2150.5"
       width="320"
       id="use1527"
       transform="rotate(118.50002,149.99998,71.649878)"
       xlink:href="#path92"
       inkscape:tiled-clone-of="#path92"
       y="0"
       x="0" />
    <use
       height="2150.5"
       width="320"
       id="use1528"
       transform="rotate(125.99999,149.99991,71.650044)"
       xlink:href="#path92"
       inkscape:tiled-clone-of="#path92"
       y="0"
       x="0" />
    <use
       height="2150.5"
       width="320"
       id="use1529"
       transform="matrix(-0.608761,0.793353,-0.793353,-0.608761,298.15827,-3.734998)"
       xlink:href="#path92"
       inkscape:tiled-clone-of="#path92"
       y="0"
       x="0" />
    <use
       height="2150.5"
       width="320"
       id="use1530"
       transform="rotate(128.99998,149.9999,71.650091)"
       xlink:href="#path92"
       inkscape:tiled-clone-of="#path92"
       y="0"
       x="0" />
    <use
       height="2150.5"
       width="320"
       id="use1531"
       transform="rotate(130.5,149.99992,71.649911)"
       xlink:href="#path92"
       inkscape:tiled-clone-of="#path92"
       y="0"
       x="0" />
    <use
       height="2150.5"
       width="320"
       id="use1532"
       transform="rotate(132.00001,149.99994,71.649867)"
       xlink:href="#path92"
       inkscape:tiled-clone-of="#path92"
       y="0"
       x="0" />
    <use
       height="2150.5"
       width="320"
       id="use1533"
       transform="rotate(133.50003,150.00016,71.649945)"
       xlink:href="#path92"
       inkscape:tiled-clone-of="#path92"
       y="0"
       x="0" />
    <use
       height="2150.5"
       width="320"
       id="use1534"
       transform="rotate(135,149.99989,71.649819)"
       xlink:href="#path92"
       inkscape:tiled-clone-of="#path92"
       y="0"
       x="0" />
    <use
       height="2150.5"
       width="320"
       id="use1535"
       transform="rotate(136.49997,149.9997,71.650178)"
       xlink:href="#path92"
       inkscape:tiled-clone-of="#path92"
       y="0"
       x="0" />
    <use
       height="2150.5"
       width="320"
       id="use1536"
       transform="rotate(144.00001,150,71.650433)"
       xlink:href="#path92"
       inkscape:tiled-clone-of="#path92"
       y="0"
       x="0" />
    <use
       height="2150.5"
       width="320"
       id="use1537"
       transform="rotate(145.50001,149.99979,71.650783)"
       xlink:href="#path92"
       inkscape:tiled-clone-of="#path92"
       y="0"
       x="0" />
    <use
       height="2150.5"
       width="320"
       id="use1538"
       transform="rotate(147.00002,150.00026,71.648908)"
       xlink:href="#path92"
       inkscape:tiled-clone-of="#path92"
       y="0"
       x="0" />
    <use
       height="2150.5"
       width="320"
       id="use1539"
       transform="rotate(148.49997,149.99953,71.65127)"
       xlink:href="#path92"
       inkscape:tiled-clone-of="#path92"
       y="0"
       x="0" />
    <use
       height="2150.5"
       width="320"
       id="use1540"
       transform="rotate(149.99999,149.99993,71.650468)"
       xlink:href="#path92"
       inkscape:tiled-clone-of="#path92"
       y="0"
       x="0" />
    <use
       height="2150.5"
       width="320"
       id="use1541"
       transform="rotate(151.49998,149.99983,71.650498)"
       xlink:href="#path92"
       inkscape:tiled-clone-of="#path92"
       y="0"
       x="0" />
    <use
       height="2150.5"
       width="320"
       id="use1542"
       transform="rotate(153.00004,150.00003,71.650344)"
       xlink:href="#path92"
       inkscape:tiled-clone-of="#path92"
       y="0"
       x="0" />
    <use
       height="2150.5"
       width="320"
       id="use1543"
       transform="rotate(154.5,150.0001,71.649896)"
       xlink:href="#path92"
       inkscape:tiled-clone-of="#path92"
       y="0"
       x="0" />
    <use
       height="2150.5"
       width="320"
       id="use1544"
       transform="rotate(162.00001,150.00008,71.648928)"
       xlink:href="#path92"
       inkscape:tiled-clone-of="#path92"
       y="0"
       x="0" />
    <use
       height="2150.5"
       width="320"
       id="use1545"
       transform="rotate(163.50002,150.00013,71.650319)"
       xlink:href="#path92"
       inkscape:tiled-clone-of="#path92"
       y="0"
       x="0" />
    <use
       height="2150.5"
       width="320"
       id="use1546"
       transform="rotate(165.00001,149.99993,71.650467)"
       xlink:href="#path92"
       inkscape:tiled-clone-of="#path92"
       y="0"
       x="0" />
    <use
       height="2150.5"
       width="320"
       id="use1547"
       transform="rotate(166.50002,150.00012,71.64934)"
       xlink:href="#path92"
       inkscape:tiled-clone-of="#path92"
       y="0"
       x="0" />
    <use
       height="2150.5"
       width="320"
       id="use1548"
       transform="rotate(167.99999,149.99978,71.651101)"
       xlink:href="#path92"
       inkscape:tiled-clone-of="#path92"
       y="0"
       x="0" />
    <use
       height="2150.5"
       width="320"
       id="use1549"
       transform="rotate(169.49997,149.99991,71.648612)"
       xlink:href="#path92"
       inkscape:tiled-clone-of="#path92"
       y="0"
       x="0" />
    <use
       height="2150.5"
       width="320"
       id="use1550"
       transform="rotate(171.00002,150.00024,71.649742)"
       xlink:href="#path92"
       inkscape:tiled-clone-of="#path92"
       y="0"
       x="0" />
    <use
       height="2150.5"
       width="320"
       id="use1551"
       transform="rotate(172.50001,149.99988,71.650599)"
       xlink:href="#path92"
       inkscape:tiled-clone-of="#path92"
       y="0"
       x="0" />
  </g>
</svg>
