<?xml version="1.0" encoding="UTF-8" standalone="no"?>
<svg
   xmlns:dc="http://purl.org/dc/elements/1.1/"
   xmlns:cc="http://creativecommons.org/ns#"
   xmlns:rdf="http://www.w3.org/1999/02/22-rdf-syntax-ns#"
   xmlns:svg="http://www.w3.org/2000/svg"
   xmlns="http://www.w3.org/2000/svg"
   xmlns:sodipodi="http://sodipodi.sourceforge.net/DTD/sodipodi-0.dtd"
   xmlns:inkscape="http://www.inkscape.org/namespaces/inkscape"
   sodipodi:docname="advanced-f12.svg"
   inkscape:version="1.0beta1 (459877fba3, 2019-11-14)"
   sodipodi:version="0.32"
   id="svg2094"
   viewBox="0 0 300 53"
   height="53"
   width="300"
   version="1.1">
  <defs
     id="defs3" />
  <sodipodi:namedview
     inkscape:window-maximized="0"
     inkscape:window-y="27"
     inkscape:window-x="54"
     inkscape:window-height="1053"
     inkscape:window-width="1866"
     inkscape:guide-bbox="true"
     showguides="true"
     units="px"
     showgrid="false"
     inkscape:document-rotation="0"
     inkscape:current-layer="layer1"
     inkscape:document-units="px"
     inkscape:cy="4.8015072"
     inkscape:cx="438.46279"
     inkscape:zoom="1.4"
     inkscape:pageshadow="2"
     inkscape:pageopacity="0.0"
     borderopacity="1.0"
     bordercolor="#666666"
     pagecolor="#ffffff"
     id="base"
     inkscape:lockguides="true" />
  <metadata
     id="metadata4">
    <rdf:RDF>
      <cc:Work
         rdf:about="">
        <dc:format>image/svg+xml</dc:format>
        <dc:type
           rdf:resource="http://purl.org/dc/dcmitype/StillImage" />
        <dc:title />
      </cc:Work>
    </rdf:RDF>
  </metadata>
  <g
     id="layer1"
     inkscape:groupmode="layer"
     inkscape:label="Layer 1">
    <path
       id="path2511"
       d="M 67.89696,41.9016 C 67.730417,40.536 67.173321,34.0302 66.767,31.732 c 0.134554,-2.9025 -0.09193,-6.623 -0.376654,-9.793 -0.743473,-4.0763 -0.187391,-7.7427 0,-12.0529 2.061223,-4.2646 3.993031,-6.8304 6.779764,-9.4163 4.692201,1.1534 5.893699,2.56 6.779757,7.1564 1.087319,3.7603 0.988578,7.7004 0.753308,12.0529 0,4.0016 -0.0053,5.616 2.259921,8.6631 5.423984,0.4687 6.29422,-0.011 8.286371,-4.8966 1.905476,-3.3123 2.552124,-6.9294 3.766536,-10.5463 3.166842,-2.2695 5.883887,-3.094 9.416327,-4.5198 4.76698,-1.225 7.69899,-0.0601 10.92296,2.2599 1.73597,4.9146 2.85243,8.223 0.37665,12.4296 -1.72771,2.3249 -4.18471,4.0172 -7.15641,5.6498 -2.21986,1.4059 -5.20432,2.9242 -7.53308,4.5198 -3.677537,0.4819 -3.8613,3.5006 -2.259919,6.4031 2.546869,1.4512 5.728789,0.5687 7.533069,-1.8832 3.48547,-1.6744 4.99825,-3.1988 9.41634,-3.3899 3.80528,0.5469 6.04022,1.173 8.28638,3.0133 2.39859,3.4645 3.26222,5.6753 4.14319,8.6629 -1.80692,2.5195 -2.94397,3.8679 -5.64981,5.6498 -3.43101,0 -6.86302,0.0343 -10.16964,-0.3766 -3.0962,-0.3198 -5.73802,-1.1251 -8.66303,-1.5066 -4.155333,0 -8.075881,0.2078 -12.052909,0.7533 -2.662675,0.0563 -3.615739,0.3446 -6.403103,0.3766 -2.371562,0.1552 -4.714357,0.5206 -6.026458,0.7533 -2.937229,-0.0253 -5.542326,-0.5306 -5.649796,-0.7533 -2.119154,0.0433 -3.899332,0.0578 -4.143189,0.3767"
       style="fill:none;fill-opacity:0.75;fill-rule:evenodd;stroke:#000000;stroke-width:0.751279pt"
       inkscape:connector-curvature="0" />
    <path
       id="path2525"
       d="m 174.37742,41.9016 c -0.87182,-10.3362 -2.37967,-20.7452 -1.38514,-31.1188 0.98583,-3.9091 3.01723,-8.0874 6.96606,-9.6972 4.6871,-0.4192 6.75832,4.9465 7.14224,8.7906 0.72905,5.62 -0.93401,11.5293 1.27936,16.9368 2.73485,3.4226 8.28368,1.0433 9.55885,-2.5881 1.70905,-4.4388 1.84047,-10.1527 6.20304,-13.0098 4.72865,-2.6661 11.10718,-4.9245 16.05726,-1.5362 5.79574,4.6363 3.81448,14.8815 -2.8275,17.7112 -4.02972,2.8587 -9.10715,4.2674 -12.61958,7.7871 -1.82166,4.4839 5.59128,7.2763 7.71624,3.1412 4.2577,-3.7219 10.89223,-5.473 15.92138,-2.2173 3.93201,2.2476 7.11143,7.4635 4.84256,11.8895 -2.55585,4.1052 -8.09003,4.2833 -12.36521,3.5308 -6.48909,-1.0027 -13.04904,-2.3289 -19.63447,-1.397 -7.74706,0.632 -15.57046,2.1598 -23.33231,0.8446 -0.6842,0.0094 -1.37316,0.1076 -2.01617,0.349"
       style="fill:none;fill-opacity:0.75;fill-rule:evenodd;stroke:#000000;stroke-width:0.751279pt"
       inkscape:connector-curvature="0" />
  </g>
</svg>
